{
  "transactions": [
    { "id": "txn_00001", "date": "2025-01-31T20:44:00Z", "merchant": "Pick n Pay", "category": "Groceries", "amount": 752.85, "description": "Weekly groceries", "paymentMethod": "EFT", "icon": "shopping-cart", "categoryColor": "#2F70EF" },
    { "id": "txn_00002", "date": "2025-01-31T18:17:00Z", "merchant": "Takealot", "category": "Shopping", "amount": 651.86, "description": "Online shopping", "paymentMethod": "Credit Card", "icon": "shopping-bag", "categoryColor": "#8B5CF6" },
    { "id": "txn_00003", "date": "2025-01-31T16:54:00Z", "merchant": "Clicks", "category": "Healthcare", "amount": 532.60, "description": "Pharmacy", "paymentMethod": "Instant Pay", "icon": "heart", "categoryColor": "#10B981" },
    { "id": "txn_00004", "date": "2025-01-31T10:43:00Z", "merchant": "Dischem", "category": "Healthcare", "amount": 158.87, "description": "Vitamins", "paymentMethod": "EFT", "icon": "heart", "categoryColor": "#10B981" },
    { "id": "txn_00005", "date": "2025-01-29T17:32:00Z", "merchant": "Checkers", "category": "Groceries", "amount": 373.56, "description": "Groceries", "paymentMethod": "Instant Pay", "icon": "shopping-cart", "categoryColor": "#2F70EF" },
    { "id": "txn_00006", "date": "2025-01-29T10:54:00Z", "merchant": "Eskom", "category": "Utilities", "amount": 1548.28, "description": "Electricity", "paymentMethod": "Instant Pay", "icon": "zap", "categoryColor": "#4ECDC4" },
    { "id": "txn_00007", "date": "2025-01-28T19:33:00Z", "merchant": "Checkers", "category": "Groceries", "amount": 758.25, "description": "Weekly shop", "paymentMethod": "EFT", "icon": "shopping-cart", "categoryColor": "#2F70EF" },
    { "id": "txn_00008", "date": "2025-01-28T12:37:00Z", "merchant": "Takealot", "category": "Shopping", "amount": 350.54, "description": "Electronics", "paymentMethod": "Instant Pay", "icon": "shopping-bag", "categoryColor": "#8B5CF6" },
    { "id": "txn_00009", "date": "2025-01-28T11:07:00Z", "merchant": "Takealot", "category": "Shopping", "amount": 235.93, "description": "Home goods", "paymentMethod": "Debit Card", "icon": "shopping-bag", "categoryColor": "#8B5CF6" },
    { "id": "txn_00010", "date": "2025-01-27T15:22:00Z", "merchant": "Netflix", "category": "Entertainment", "amount": 199.00, "description": "Subscription", "paymentMethod": "Debit Order", "icon": "film", "categoryColor": "#F59E0B" },
    { "id": "txn_00011", "date": "2025-01-27T09:15:00Z", "merchant": "Shell", "category": "Transport", "amount": 890.50, "description": "Fuel", "paymentMethod": "Credit Card", "icon": "car", "categoryColor": "#1E3A8A" },
    { "id": "txn_00012", "date": "2025-01-26T20:30:00Z", "merchant": "Ocean Basket", "category": "Dining", "amount": 485.75, "description": "Dinner", "paymentMethod": "Credit Card", "icon": "utensils", "categoryColor": "#EF4444" },
    { "id": "txn_00013", "date": "2025-01-26T14:45:00Z", "merchant": "Uber", "category": "Transport", "amount": 156.80, "description": "Ride", "paymentMethod": "Instant Pay", "icon": "car", "categoryColor": "#1E3A8A" },
    { "id": "txn_00014", "date": "2025-01-25T18:20:00Z", "merchant": "Nandos", "category": "Dining", "amount": 298.50, "description": "Lunch", "paymentMethod": "Debit Card", "icon": "utensils", "categoryColor": "#EF4444" },
    { "id": "txn_00015", "date": "2025-01-25T11:00:00Z", "merchant": "Woolworths", "category": "Groceries", "amount": 1245.30, "description": "Premium groceries", "paymentMethod": "Credit Card", "icon": "shopping-cart", "categoryColor": "#2F70EF" },
    { "id": "txn_00016", "date": "2025-01-24T16:30:00Z", "merchant": "City Power", "category": "Utilities", "amount": 2150.00, "description": "Municipal bill", "paymentMethod": "EFT", "icon": "zap", "categoryColor": "#4ECDC4" },
    { "id": "txn_00017", "date": "2025-01-24T10:15:00Z", "merchant": "Gautrain", "category": "Transport", "amount": 420.00, "description": "Monthly pass", "paymentMethod": "Debit Card", "icon": "car", "categoryColor": "#1E3A8A" },
    { "id": "txn_00018", "date": "2025-01-23T19:45:00Z", "merchant": "Showmax", "category": "Entertainment", "amount": 99.00, "description": "Streaming", "paymentMethod": "Debit Order", "icon": "film", "categoryColor": "#F59E0B" },
    { "id": "txn_00019", "date": "2025-01-23T13:20:00Z", "merchant": "Pick n Pay", "category": "Groceries", "amount": 567.90, "description": "Groceries", "paymentMethod": "Instant Pay", "icon": "shopping-cart", "categoryColor": "#2F70EF" },
    { "id": "txn_00020", "date": "2025-01-22T17:00:00Z", "merchant": "Mr Price", "category": "Shopping", "amount": 899.00, "description": "Clothing", "paymentMethod": "Credit Card", "icon": "shopping-bag", "categoryColor": "#8B5CF6" },
    { "id": "txn_00021", "date": "2025-01-22T09:30:00Z", "merchant": "Shell", "category": "Transport", "amount": 750.25, "description": "Fuel", "paymentMethod": "Debit Card", "icon": "car", "categoryColor": "#1E3A8A" },
    { "id": "txn_00022", "date": "2025-01-21T20:15:00Z", "merchant": "Steers", "category": "Dining", "amount": 189.50, "description": "Fast food", "paymentMethod": "Instant Pay", "icon": "utensils", "categoryColor": "#EF4444" },
    { "id": "txn_00023", "date": "2025-01-21T14:00:00Z", "merchant": "Clicks", "category": "Healthcare", "amount": 345.80, "description": "Medicine", "paymentMethod": "EFT", "icon": "heart", "categoryColor": "#10B981" },
    { "id": "txn_00024", "date": "2025-01-20T18:45:00Z", "merchant": "Checkers", "category": "Groceries", "amount": 892.15, "description": "Weekly shop", "paymentMethod": "Credit Card", "icon": "shopping-cart", "categoryColor": "#2F70EF" },
    { "id": "txn_00025", "date": "2025-01-20T11:30:00Z", "merchant": "Uber", "category": "Transport", "amount": 234.60, "description": "Airport transfer", "paymentMethod": "Instant Pay", "icon": "car", "categoryColor": "#1E3A8A" },
    { "id": "txn_00026", "date": "2025-01-19T19:00:00Z", "merchant": "Mugg & Bean", "category": "Dining", "amount": 425.30, "description": "Family dinner", "paymentMethod": "Credit Card", "icon": "utensils", "categoryColor": "#EF4444" },
    { "id": "txn_00027", "date": "2025-01-19T10:00:00Z", "merchant": "Woolworths", "category": "Groceries", "amount": 678.45, "description": "Groceries", "paymentMethod": "Debit Card", "icon": "shopping-cart", "categoryColor": "#2F70EF" },
    { "id": "txn_00028", "date": "2025-01-18T16:20:00Z", "merchant": "Takealot", "category": "Shopping", "amount": 1299.00, "description": "Appliance", "paymentMethod": "Credit Card", "icon": "shopping-bag", "categoryColor": "#8B5CF6" },
    { "id": "txn_00029", "date": "2025-01-18T08:45:00Z", "merchant": "Engen", "category": "Transport", "amount": 680.90, "description": "Fuel", "paymentMethod": "Debit Card", "icon": "car", "categoryColor": "#1E3A8A" },
    { "id": "txn_00030", "date": "2025-01-17T20:30:00Z", "merchant": "Spur", "category": "Dining", "amount": 562.75, "description": "Birthday dinner", "paymentMethod": "Credit Card", "icon": "utensils", "categoryColor": "#EF4444" },
    { "id": "txn_00031", "date": "2025-01-17T12:15:00Z", "merchant": "Dischem", "category": "Healthcare", "amount": 789.20, "description": "Supplements", "paymentMethod": "Instant Pay", "icon": "heart", "categoryColor": "#10B981" },
    { "id": "txn_00032", "date": "2025-01-16T17:45:00Z", "merchant": "Pick n Pay", "category": "Groceries", "amount": 445.60, "description": "Quick shop", "paymentMethod": "EFT", "icon": "shopping-cart", "categoryColor": "#2F70EF" },
    { "id": "txn_00033", "date": "2025-01-16T09:00:00Z", "merchant": "Telkom", "category": "Utilities", "amount": 899.00, "description": "Internet", "paymentMethod": "Debit Order", "icon": "zap", "categoryColor": "#4ECDC4" },
    { "id": "txn_00034", "date": "2025-01-15T19:20:00Z", "merchant": "KFC", "category": "Dining", "amount": 178.90, "description": "Takeaway", "paymentMethod": "Instant Pay", "icon": "utensils", "categoryColor": "#EF4444" },
    { "id": "txn_00035", "date": "2025-01-15T14:30:00Z", "merchant": "Mr Price", "category": "Shopping", "amount": 456.00, "description": "Shoes", "paymentMethod": "Debit Card", "icon": "shopping-bag", "categoryColor": "#8B5CF6" },
    { "id": "txn_00036", "date": "2025-01-14T18:00:00Z", "merchant": "Checkers", "category": "Groceries", "amount": 1123.45, "description": "Monthly shop", "paymentMethod": "Credit Card", "icon": "shopping-cart", "categoryColor": "#2F70EF" },
    { "id": "txn_00037", "date": "2025-01-14T10:45:00Z", "merchant": "Uber", "category": "Transport", "amount": 189.30, "description": "Work commute", "paymentMethod": "Instant Pay", "icon": "car", "categoryColor": "#1E3A8A" },
    { "id": "txn_00038", "date": "2025-01-13T20:15:00Z", "merchant": "Vida e Caffè", "category": "Dining", "amount": 156.50, "description": "Coffee meeting", "paymentMethod": "Credit Card", "icon": "utensils", "categoryColor": "#EF4444" },
    { "id": "txn_00039", "date": "2025-01-13T11:00:00Z", "merchant": "Woolworths", "category": "Groceries", "amount": 534.80, "description": "Fresh produce", "paymentMethod": "Debit Card", "icon": "shopping-cart", "categoryColor": "#2F70EF" },
    { "id": "txn_00040", "date": "2025-01-12T16:30:00Z", "merchant": "Eskom", "category": "Utilities", "amount": 1876.50, "description": "Electricity", "paymentMethod": "EFT", "icon": "zap", "categoryColor": "#4ECDC4" },
    { "id": "txn_00041", "date": "2025-01-12T08:00:00Z", "merchant": "Shell", "category": "Transport", "amount": 920.75, "description": "Fuel", "paymentMethod": "Credit Card", "icon": "car", "categoryColor": "#1E3A8A" },
    { "id": "txn_00042", "date": "2025-01-11T19:45:00Z", "merchant": "Doppio Zero", "category": "Dining", "amount": 678.25, "description": "Anniversary dinner", "paymentMethod": "Credit Card", "icon": "utensils", "categoryColor": "#EF4444" },
    { "id": "txn_00043", "date": "2025-01-11T13:20:00Z", "merchant": "Clicks", "category": "Healthcare", "amount": 267.90, "description": "First aid supplies", "paymentMethod": "Instant Pay", "icon": "heart", "categoryColor": "#10B981" },
    { "id": "txn_00044", "date": "2025-01-10T17:00:00Z", "merchant": "Pick n Pay", "category": "Groceries", "amount": 789.35, "description": "Groceries", "paymentMethod": "Debit Card", "icon": "shopping-cart", "categoryColor": "#2F70EF" },
    { "id": "txn_00045", "date": "2025-01-10T09:30:00Z", "merchant": "Spotify", "category": "Entertainment", "amount": 79.99, "description": "Music streaming", "paymentMethod": "Debit Order", "icon": "film", "categoryColor": "#F59E0B" },
    { "id": "txn_00046", "date": "2025-01-09T18:15:00Z", "merchant": "Takealot", "category": "Shopping", "amount": 567.50, "description": "Books", "paymentMethod": "Credit Card", "icon": "shopping-bag", "categoryColor": "#8B5CF6" },
    { "id": "txn_00047", "date": "2025-01-09T12:00:00Z", "merchant": "Uber", "category": "Transport", "amount": 145.80, "description": "Errand", "paymentMethod": "Instant Pay", "icon": "car", "categoryColor": "#1E3A8A" },
    { "id": "txn_00048", "date": "2025-01-08T20:00:00Z", "merchant": "RocoMamas", "category": "Dining", "amount": 389.50, "description": "Weekend treat", "paymentMethod": "Credit Card", "icon": "utensils", "categoryColor": "#EF4444" },
    { "id": "txn_00049", "date": "2025-01-08T10:30:00Z", "merchant": "Checkers", "category": "Groceries", "amount": 623.90, "description": "Groceries", "paymentMethod": "EFT", "icon": "shopping-cart", "categoryColor": "#2F70EF" },
    { "id": "txn_00050", "date": "2025-01-07T15:45:00Z", "merchant": "City Power", "category": "Utilities", "amount": 1345.00, "description": "Water bill", "paymentMethod": "EFT", "icon": "zap", "categoryColor": "#4ECDC4" }
  ],
  "pagination": {
    "total": 150,
    "limit": 50,
    "offset": 0,
    "hasMore": true
  }
}
